Study protocol: Production of Arenavirus and Hantavirus host-pathogen database.
…
2 OR 3 - 6,308

1 AND 4 - 1,842

Citations were downloaded as a text file and imported into R for processing. Deduplication by Pubmed ID resulted in 1821 distinct citations.

Code

search_date <- "2023-01-06"

articles <- read_rds(here("data", "search", paste0("citations_", search_date, ".rds")))

articles

# A tibble: 1,821 x 14
# Groups:   pmid [1,821]
   pmid     doi   title abstr~1 year  month day   jabbrv journal keywo~2 lastn~3
   <chr>    <chr> <chr> <chr>   <chr> <chr> <chr> <chr>  <chr>   <chr>   <chr>  
 1 10030054 ""    [Ven~ "Venez~ 1998  1     1     Acta ~ Acta c~ <NA>    Salas  
 2 10071675 "10.~ Hant~ "We pr~ 1999  2     1     South~ Southe~ <NA>    Schuss~
 3 10073292 "10.~ Spec~ "Hanta~ 1999  1     1     Annu ~ Annual~ <NA>    Peters 
 4 10073697 "10.~ Isol~ "Dobra~ 1999  2     1     J Gen~ The Jo~ <NA>    Nemirov
 5 10081674 "10.~ Gene~ "The 1~ 1999  1     1     Emerg~ Emergi~ <NA>    Monroe 
 6 10081676 "10.~ Long~ "Hanta~ 1999  1     1     Emerg~ Emergi~ <NA>    Mills  
 7 10081677 "10.~ Long~ "For 3~ 1999  1     1     Emerg~ Emergi~ <NA>    Abbott 
 8 10081678 "10.~ A lo~ "We de~ 1999  1     1     Emerg~ Emergi~ <NA>    Kuenzi 
 9 10081679 "10.~ Stat~ "A lon~ 1999  1     1     Emerg~ Emergi~ <NA>    Parmen~
10 10081680 "10.~ Natu~ "A mar~ 1999  1     1     Emerg~ Emergi~ <NA>    Calish~
# ... with 1,811 more rows, 3 more variables: firstname <chr>, address <chr>,
#   email <chr>, and abbreviated variable names 1: abstract, 2: keywords,
#   3: lastname
…
